"s_datecreated","s_createdby","s_version","name","label","sub_type_label","resolver_id","id"
"2013-06-03","DBUNIT","1","LITERAL","ruleConfiguration.type.literal.label","","","-1"
"2013-06-03","DBUNIT","1","FORM","ruleConfiguration.type.form.label","ruleConfiguration.type.form.subTypeLabel","usp:resolver:form:formFacts","-2"
"2013-06-03","DBUNIT","1","PERSON","ruleConfiguration.type.person.label","","usp:resolver:person:personFacts","-3"
"2013-06-03","DBUNIT","1","RULE","ruleConfiguration.type.rule.label","","","-4"
