"s_datecreated","s_createdby","s_version","name","code","outcome_type","display_number","mandatory","id"
"2011-03-14","DBUNIT","1","Entry Type","CASENOTE_ENTRY_TYPE","CASENOTE","1","1","-1"
"2011-03-14","DBUNIT","1","Entry State","CASENOTE_ENTRY_STATE","CASENOTE","2","1","-2"
"2011-03-14","DBUNIT","1","Entry Date","CASENOTE_ENTRY_DATE","CASENOTE","3","1","-3"
"2011-03-14","DBUNIT","1","Entry Text","CASENOTE_ENTRY_TEXT","CASENOTE","4","1","-4"
"2011-03-14","DBUNIT","1","Impact","CASENOTE_ENTRY_IMPACT","CASENOTE","5","0","-5"
"2011-03-14","DBUNIT","1","Source","CASENOTE_ENTRY_SOURCE","CASENOTE","6","0","-6"
"2011-03-14","DBUNIT","1","Practitioner Organisation","CASENOTE_ENTRY_PRACTITIONER_ORGANISATION","CASENOTE","7","0","-7"
"2011-03-14","DBUNIT","1","Source Organisation","CASENOTE_ENTRY_SOURCE_ORGANISATION","CASENOTE","8","0","-8"
"2011-03-14","DBUNIT","1","Entry Type","CHRONOLOGY_ENTRY_TYPE","CHRONOLOGY","1","1","-11"
"2011-03-14","DBUNIT","1","Entry State","CHRONOLOGY_ENTRY_STATE","CHRONOLOGY","2","1","-12"
"2011-03-14","DBUNIT","1","Entry Date","CHRONOLOGY_ENTRY_DATE","CHRONOLOGY","3","1","-13"
"2011-03-14","DBUNIT","1","Entry Text","CHRONOLOGY_ENTRY_TEXT","CHRONOLOGY","4","1","-14"
"2011-03-14","DBUNIT","1","Impact","CHRONOLOGY_ENTRY_IMPACT","CHRONOLOGY","6","0","-15"
"2011-03-14","DBUNIT","1","Source","CHRONOLOGY_ENTRY_SOURCE","CHRONOLOGY","7","0","-16"
"2011-03-14","DBUNIT","1","Practitioner Organisation","CHRONOLOGY_ENTRY_PRACTITIONER_ORGANISATION","CHRONOLOGY","8","0","-17"
"2011-03-14","DBUNIT","1","Source Organisation","CHRONOLOGY_ENTRY_SOURCE_ORGANISATION","CHRONOLOGY","9","0","-18"
"2011-03-14","DBUNIT","1","Action Text","CHRONOLOGY_ENTRY_ACTION_TEXT","CHRONOLOGY","5","0","-19"
"2011-03-14","DBUNIT","1","Form Type","FORM_TYPE","FORM","1","1","-21"
"2011-03-14","DBUNIT","1","Form State","FORM_STATE","FORM","2","1","-22"
"2011-03-14","DBUNIT","1","Checklist Type","CHECKLIST_TYPE","NEW_CHECKLIST","1","1","-31"
"2011-03-14","DBUNIT","1","Checklist Action","CHECKLIST_ACTION","CHECKLIST","1","1","-41"
"2011-03-14","DBUNIT","1","Classification","CLASSIFICATION","CLASSIFICATION","1","1","-51"
"2011-03-14","DBUNIT","1","Start Date","CLASSIFICATION_START_DATE","CLASSIFICATION","2","1","-52"
"2011-03-14","DBUNIT","1","End Date","CLASSIFICATION_END_DATE","CLASSIFICATION","3","0","-53"
