"name","start_date","end_date","type_of_event","all_day","event_bundle_fk","s_createdby","s_datecreated","s_version","id"
"New Year's Day","2014-01-01","2014-01-01","BHOL","1","-1","DBUNIT","2014-07-16","1","-1"
"Good Friday","2014-04-18","2014-04-18","BHOL","1","-1","DBUNIT","2014-07-16","1","-2"
"Easter Monday","2014-04-21","2014-04-21","BHOL","1","-1","DBUNIT","2014-07-16","1","-3"
"Early May bank holiday","2014-05-05","2014-05-05","BHOL","1","-1","DBUNIT","2014-07-16","1","-4"
"Spring bank holiday","2014-05-26","2014-05-26","BHOL","1","-1","DBUNIT","2014-07-16","1","-5"
"Summer bank holiday","2014-08-25","2014-08-25","BHOL","1","-1","DBUNIT","2014-07-16","1","-6"
"Christmas Day","2014-12-25","2014-12-25","BHOL","1","-1","DBUNIT","2014-07-16","1","-7"
"Boxing Day","2014-12-26","2014-12-26","BHOL","1","-1","DBUNIT","2014-07-16","1","-8"
"New Year's Day","2015-01-01","2015-01-01","BHOL","1","-1","DBUNIT","2015-07-16","1","-9"
"Good Friday","2015-04-03","2015-04-03","BHOL","1","-1","DBUNIT","2015-07-16","1","-10"
"Easter Monday","2015-04-06","2015-04-06","BHOL","1","-1","DBUNIT","2015-07-16","1","-11"
"Early May bank holiday","2015-05-04","2015-05-04","BHOL","1","-1","DBUNIT","2015-07-16","1","-12"
"Spring bank holiday","2015-05-25","2015-05-25","BHOL","1","-1","DBUNIT","2015-07-16","1","-13"
"Summer bank holiday","2015-08-31","2015-08-31","BHOL","1","-1","DBUNIT","2015-07-16","1","-14"
"Christmas Day","2015-12-25","2015-12-25","BHOL","1","-1","DBUNIT","2015-07-16","1","-15"
"Boxing Day","2015-12-28","2015-12-28","BHOL","1","-1","DBUNIT","2015-07-16","1","-16"
"New Year's Day","2016-01-01","2016-01-01","BHOL","1","-1","DBUNIT","2016-07-16","1","-17"
"Good Friday","2016-03-25","2016-03-25","BHOL","1","-1","DBUNIT","2016-07-16","1","-18"
"Easter Monday","2016-03-28","2016-03-28","BHOL","1","-1","DBUNIT","2016-07-16","1","-19"
"Early May bank holiday","2016-05-02","2016-05-02","BHOL","1","-1","DBUNIT","2016-07-16","1","-20"
"Spring bank holiday","2016-05-30","2016-05-30","BHOL","1","-1","DBUNIT","2016-07-16","1","-21"
"Summer bank holiday","2016-08-29","2016-08-29","BHOL","1","-1","DBUNIT","2016-07-16","1","-22"
"Boxing Day","2016-12-26","2016-12-26","BHOL","1","-1","DBUNIT","2016-07-16","1","-23"
"Christmas Day","2016-12-27","2016-12-27","BHOL","1","-1","DBUNIT","2016-07-16","1","-24"
"New Year's Day","2017-01-02","2017-01-02","BHOL","1","-1","DBUNIT","2017-07-16","1","-25"
"Good Friday","2017-04-14","2017-04-14","BHOL","1","-1","DBUNIT","2017-07-16","1","-26"
"Easter Monday","2017-04-17","2017-04-17","BHOL","1","-1","DBUNIT","2017-07-16","1","-27"
"Early May bank holiday","2017-05-01","2017-05-01","BHOL","1","-1","DBUNIT","2017-07-16","1","-28"
"Spring bank holiday","2017-05-29","2017-05-29","BHOL","1","-1","DBUNIT","2017-07-16","1","-29"
"Summer bank holiday","2017-08-28","2017-08-28","BHOL","1","-1","DBUNIT","2017-07-16","1","-30"
"Christmas Day","2017-12-25","2017-12-25","BHOL","1","-1","DBUNIT","2017-07-16","1","-31"
"Boxing Day","2017-12-26","2017-12-26","BHOL","1","-1","DBUNIT","2017-07-16","1","-32"
