<?xml version="1.0" standalone="no"?>
<!DOCTYPE svg PUBLIC "-//W3C//DTD SVG 1.1//EN" "http://www.w3.org/Graphics/SVG/1.1/DTD/svg11.dtd">
<svg xmlns="http://www.w3.org/2000/svg">
<metadata>Generated by Fontastic.me</metadata>
<defs>
<font id="eclipse" horiz-adv-x="512">
<font-face font-family="eclipse" units-per-em="512" ascent="480" descent="-32"/>
<missing-glyph horiz-adv-x="512" />

<glyph glyph-name="casenotes" unicode="&#97;" d="M473 353l0-322c0-15-12-27-27-27l-376 0c-15 0-27 12-27 27l0 448c0 15 12 27 27 27l251 0c14 0 35-9 46-19l87-88c10-10 19-31 19-46z m-36-27l-116 0c-15 0-27 12-27 27l0 117-215 0 0-430 358 0z m-107 36l105 0c-2 5-4 10-6 12l-88 87c-2 2-7 5-11 7l0-106z m-160-243l0 188 12 0 118-118 0 118 37 0 0-188-13 0-117 117 0-117z"/>
<glyph glyph-name="chronology" unicode="&#98;" d="M471 354l0-321c0-15-12-27-27-27l-375 0c-14 0-26 12-26 27l0 446c0 15 12 27 26 27l250 0c15 0 36-9 46-19l87-87c10-10 19-31 19-46z m-36-27l-116 0c-15 0-27 12-27 27l0 116-214 0 0-428 357 0z m-107 36l105 0c-2 5-4 10-6 11l-87 88c-2 2-7 4-12 6z m-135-215c-18 18-26 40-26 67 0 26 9 48 26 66 18 18 40 27 67 27 26 0 49-8 68-25l-25-27c-12 10-27 15-43 15-17 0-31-6-41-16-10-10-15-24-15-40 0-17 5-31 15-41 11-10 24-15 41-15 17 0 31 5 43 14l25-27c-19-16-42-25-68-25-27 0-49 9-67 27z"/>
<glyph glyph-name="forms" unicode="&#100;" d="M473 354l0-321c0-15-12-27-27-27l-375 0c-14 0-26 12-26 27l0 446c0 15 12 27 26 27l250 0c15 0 36-9 46-19l87-87c10-10 19-31 19-46z m-36-27l-116 0c-15 0-27 12-27 27l0 116-214 0 0-428 357 0z m-107 36l105 0c-2 5-4 10-6 11l-87 88c-2 2-7 4-12 6l0-105z m-135-242l0 187 131 0 0-35-94 0 0-40 69 0 0-34-69 0 0-78z"/>
<glyph glyph-name="historic" unicode="&#101;" d="M367 333l-67-67c0-3 1-7 1-10 0-23-19-41-41-41-16 0-29 10-36 20l-57 0c-5 0-10 6-10 11l0 20c0 5 5 10 10 10l57 0c7 11 20 21 36 21 4 0 8-1 11-2l67 67c4 4 10 4 14 0l15-15c4-4 4-10 0-14m135-118c2 20 4 27 4 41 0 136-111 247-246 247-136 0-247-111-247-246 0-136 103-246 247-246l0 0c41 0 92 13 134 40l1 1 30-42c3-5 8-4 9 1l45 132c2 6-1 10-7 10l-140 0c-6 0-8-3-4-8l31-43c-31-20-58-30-99-30l0 0c-103 0-185 83-185 185 0 102 83 184 185 184 102 0 184-83 184-185 0-14-2-21-5-41l63 0z"/>
<glyph glyph-name="contact" unicode="&#99;" d="M458 453l-398 0c-23 0-43-19-43-43l0-312c0-23 20-43 43-43l398 0c24 0 43 20 43 43l0 312c0 24-19 43-43 43z m-398-31l398 0c7 0 12-5 12-12l0-53-422 0 0 53c0 7 6 12 12 12z m398-335l-398 0c-6 0-12 5-12 11l0 227 422 0 0-227c0-6-5-11-12-11z m-361 290l118 0c7 0 13 5 13 12 0 7-6 13-13 13l-118 0c-6 0-12-6-12-13 0-7 6-12 12-12z m319-3c4 0 8 1 11 4 3 3 4 7 4 11 0 4-1 8-4 11-3 3-7 5-11 5-4 0-8-2-11-5-3-3-5-7-5-11 0-4 2-8 5-11 3-3 7-4 11-4z m-56 0c4 0 8 1 11 4 3 3 4 7 4 11 0 4-1 8-4 11-3 3-7 5-11 5-5 0-9-2-11-5-3-3-5-7-5-11 0-4 2-8 5-11 2-3 6-4 11-4z m-56 0c4 0 8 1 11 4 2 3 4 7 4 11 0 4-2 8-4 11-3 3-7 5-11 5-5 0-9-2-11-5-3-3-5-7-5-11 0-4 2-8 5-11 2-3 6-4 11-4z m-104-116l118 0c9 0 16 7 16 15 0 9-7 16-16 16l-118 0c-8 0-15-7-15-16 0-8 7-15 15-15z m192-36l-265 0c-9 0-16-7-16-16 0-9 7-16 16-16l265 0c8 0 15 7 15 16 0 9-7 16-15 16z m0-68l-265 0c-9 0-16-7-16-16 0-8 7-15 16-15l265 0c8 0 15 7 15 15 0 9-7 16-15 16z"/>
<glyph glyph-name="team" unicode="&#102;" d="M256 4c-42 0-84 11-120 33l19 32c30-18 66-28 101-28 34 0 67 9 97 25l18-32 0 0c-35-20-75-30-115-30z m235 232l-37 1c1 1 1 1 1 2 0 34-9 67-26 97-17 30-41 56-71 74l19 31c35-21 64-51 85-87 19-35 29-75 29-115 0-1 0-2 0-3z m-433 6l-37 1c1 83 47 161 120 202l19-33c-62-34-101-99-102-170z m409-161c-29-17-66-6-82 23-17 29-6 66 23 82 29 17 66 6 83-23 16-29 5-66-24-82z m-330 87c-16 29-53 40-82 23-29-16-40-53-24-82 17-29 54-40 83-23 29 16 40 53 23 82z m177 308c-17 29-54 40-83 23-29-16-40-53-23-82 16-29 53-40 82-24 29 17 40 54 24 83z"/>
</font></defs></svg>
