<?xml version="1.0" encoding="UTF-8"?>
<!DOCTYPE tiles-definitions PUBLIC "-//Apache Software Foundation//DTD Tiles Configuration 2.1//EN" "http://tiles.apache.org/dtds/tiles-config_2_1.dtd">
<tiles-definitions>
  <definition name="admin.outputs" extends="app.page">
    <put-attribute name="title">
      <definition extends="app.page.title">
        <put-attribute name="subTitle" value="Outputs Administration" />
      </definition>
    </put-attribute>

    <put-attribute name="content">
      <definition extends="base.page.content">
        <put-attribute name="header">
          <definition extends="base.page.content.header">
            <put-attribute name="context" value="/WEB-INF/views/tiles/content/administration/output/context/context.jsp" type="template" />
          </definition>
        </put-attribute>

        <put-attribute name="content">
          <definition extends="base.page.content.section">
            <put-attribute name="header">
              <definition extends="base.page.content.inline.header">
                <put-attribute name="context" value="/WEB-INF/views/tiles/content/administration/output/context/header.jsp" type="template" />
                <put-attribute name="contentContext" value="/WEB-INF/views/tiles/content/administration/output/context/filterContext.jsp" type="template" />
                <put-attribute name="toolbar">
                  <definition extends="base.page.content.header.toolbar">
                    <put-attribute name="toolbarClass" value="table-actions-menu" />
                    <put-list-attribute name="buttons">
                      <add-attribute>
                        <definition extends="base.page.content.button.item">
                          <put-attribute name="item" value="/WEB-INF/views/tiles/content/administration/output/toolbar/generate-button.jsp" type="template" />
                        </definition>
                      </add-attribute>
                      <add-attribute>
                        <definition extends="base.page.content.button.item">
                          <put-attribute name="item" value="/WEB-INF/views/tiles/content/administration/output/toolbar/filter-button.jsp" type="template" />
                        </definition>
                      </add-attribute>
                      <add-attribute>
                        <definition extends="base.page.content.button.item">
                          <put-attribute name="item" value="/WEB-INF/views/tiles/content/administration/output/toolbar/add-button.jsp" type="template" />
                        </definition>
                      </add-attribute>
                    </put-list-attribute>
                  </definition>
                </put-attribute>
              </definition>
            </put-attribute>
            <put-attribute name="content" value="/WEB-INF/views/tiles/content/administration/output/view.jsp" type="template" />
          </definition>
        </put-attribute>
      </definition>
    </put-attribute>

    <put-attribute name="selectedMenuItem" value="menu.outputadministration" type="string" />

    <put-attribute name="bodyId" value="outputadministration" />
  </definition>
</tiles-definitions>