<?xml version="1.0" encoding="utf-8"?>
<!-- Generator: Adobe Illustrator 15.1.0, SVG Export Plug-In . SVG Version: 6.00 Build 0)  -->
<!DOCTYPE svg PUBLIC "-//W3C//DTD SVG 1.1//EN" "http://www.w3.org/Graphics/SVG/1.1/DTD/svg11.dtd">
<svg version="1.1" id="Layer_1" xmlns="http://www.w3.org/2000/svg" xmlns:xlink="http://www.w3.org/1999/xlink" x="0px" y="0px"
	 width="14px" height="14px" viewBox="0 0 14 14" enable-background="new 0 0 14 14" xml:space="preserve">
<circle fill="#565657" cx="7" cy="7" r="7"/>
<g>
	<path fill="#FFFFFF" d="M3.88,7.6v2.052H3.041V4.516h1.451c0.663,0,1.153,0.125,1.472,0.373c0.319,0.249,0.478,0.623,0.478,1.124
		c0,0.64-0.333,1.095-0.998,1.367l1.451,2.273H5.938L4.709,7.6H3.88z M3.88,6.905h0.583c0.391,0,0.675-0.073,0.85-0.218
		c0.176-0.146,0.264-0.361,0.264-0.646c0-0.291-0.095-0.499-0.285-0.625C5.103,5.289,4.817,5.226,4.435,5.226H3.88V6.905z"/>
	<path fill="#FFFFFF" d="M9.645,5.162c-0.482,0-0.862,0.171-1.139,0.513C8.229,6.017,8.092,6.489,8.092,7.091
		c0,0.63,0.133,1.106,0.398,1.431c0.266,0.322,0.65,0.484,1.154,0.484c0.218,0,0.429-0.021,0.632-0.064
		c0.204-0.045,0.416-0.1,0.636-0.168v0.721c-0.402,0.152-0.859,0.229-1.37,0.229c-0.751,0-1.329-0.229-1.731-0.684
		C7.408,8.584,7.207,7.932,7.207,7.084c0-0.534,0.098-1.001,0.293-1.402c0.196-0.4,0.478-0.707,0.848-0.92
		c0.37-0.213,0.805-0.32,1.304-0.32c0.524,0,1.01,0.11,1.454,0.331l-0.302,0.699c-0.174-0.082-0.356-0.154-0.55-0.216
		S9.857,5.162,9.645,5.162z"/>
</g>
</svg>
