<?xml version="1.0" encoding="utf-8"?>
<!-- Generator: Adobe Illustrator 15.1.0, SVG Export Plug-In . SVG Version: 6.00 Build 0)  -->
<!DOCTYPE svg PUBLIC "-//W3C//DTD SVG 1.1//EN" "http://www.w3.org/Graphics/SVG/1.1/DTD/svg11.dtd">
<svg version="1.1" id="Layer_1" xmlns="http://www.w3.org/2000/svg" xmlns:xlink="http://www.w3.org/1999/xlink" x="0px" y="0px"
	 width="31.612px" height="14px" viewBox="0 0 31.612 14" enable-background="new 0 0 31.612 14" xml:space="preserve">
<image overflow="visible" width="1295" height="158" xlink:href="D9D401A.jpg"  transform="matrix(0.9999 0 0 0.9999 -7883.3877 -7770.1099)">
</image>
<circle fill="#121213" cx="7" cy="6.966" r="7"/>
<g>
	<path fill="#FFFFFF" d="M8.202,9.942H8.153c-0.412,0.599-1.028,0.897-1.848,0.897c-0.77,0-1.369-0.264-1.796-0.789
		C4.081,9.523,3.867,8.775,3.867,7.805c0-0.97,0.215-1.724,0.645-2.261S5.54,4.738,6.306,4.738c0.798,0,1.411,0.29,1.837,0.87h0.07
		L8.175,5.184L8.153,4.77V2.375h0.892v8.358H8.32L8.202,9.942z M6.418,10.094c0.609,0,1.05-0.166,1.324-0.498
		C8.016,9.265,8.153,8.73,8.153,7.993V7.805c0-0.834-0.139-1.43-0.417-1.786c-0.277-0.356-0.72-0.535-1.329-0.535
		c-0.523,0-0.923,0.203-1.2,0.61C4.93,6.5,4.791,7.074,4.791,7.815c0,0.752,0.138,1.319,0.414,1.702
		C5.48,9.901,5.885,10.094,6.418,10.094z"/>
</g>
<circle fill="#347AB7" cx="24.613" cy="7" r="6.999"/>
<g>
	<path fill="#FFFFFF" d="M24.938,10.85c-0.914,0-1.637-0.289-2.166-0.867c-0.528-0.578-0.793-1.381-0.793-2.408
		c0-1.035,0.246-1.857,0.737-2.467s1.151-0.914,1.979-0.914c0.775,0,1.389,0.265,1.842,0.794c0.451,0.529,0.678,1.228,0.678,2.095
		v0.615h-4.265c0.019,0.754,0.202,1.326,0.55,1.717C23.851,9.805,24.341,10,24.974,10c0.666,0,1.324-0.145,1.977-0.434v0.867
		c-0.332,0.148-0.645,0.255-0.941,0.319C25.714,10.817,25.356,10.85,24.938,10.85z M24.685,5.008c-0.496,0-0.893,0.168-1.188,0.504
		s-0.47,0.801-0.522,1.395h3.236c0-0.613-0.133-1.083-0.395-1.409C25.552,5.171,25.175,5.008,24.685,5.008z"/>
</g>
</svg>
