<?xml version="1.0" encoding="utf-8"?>
<!-- Generator: Adobe Illustrator 24.0.0, SVG Export Plug-In . SVG Version: 6.00 Build 0)  -->
<svg version="1.1" id="Layer_1" xmlns="http://www.w3.org/2000/svg" xmlns:xlink="http://www.w3.org/1999/xlink" x="0px" y="0px"
	 viewBox="0 0 19 19" style="enable-background:new 0 0 19 19;" xml:space="preserve">
<style type="text/css">
	.st0{fill:#565657;}
	.st1{fill:#FFFFFF;}
	.st2{fill:#191919;}
	.st3{fill:#347AB7;}
</style>
<g>
	<path class="st0" d="M3.5,7.9H2.4V12h1.1c1.3,0,2-0.7,2-2.1C5.5,8.6,4.8,7.9,3.5,7.9z"/>
	<path class="st0" d="M9.8,0.5c-5,0-9,4-9,9c0,5,4,9,9,9c5,0,9-4,9-9C18.8,4.5,14.8,0.5,9.8,0.5z M5.5,11.9
		c-0.4,0.4-1.1,0.7-1.9,0.7H1.8V7.4h1.7c0.8,0,1.4,0.2,1.9,0.7C5.9,8.5,6.1,9.2,6.1,10C6.1,10.8,5.9,11.4,5.5,11.9z M12.1,12.5h-0.5
		l-1.5-4.2l-1.5,4.2H8.2L6.4,7.4H7l1.5,4.3l1.5-4.3l0.4,0l1.5,4.3l1.5-4.3h0.6L12.1,12.5z M16.4,10.5H15v2.1h-0.6V7.4h2
		c0.5,0,1,0.1,1.3,0.4c0.3,0.3,0.4,0.6,0.4,1.1s-0.1,0.9-0.4,1.1C17.4,10.3,17,10.5,16.4,10.5z"/>
	<path class="st0" d="M16.4,7.9H15v2h1.4c0.8,0,1.2-0.3,1.2-1C17.6,8.3,17.2,7.9,16.4,7.9z"/>
	<path class="st1" d="M3.6,7.4H1.8v5.1h1.7c0.8,0,1.4-0.2,1.9-0.7c0.4-0.4,0.7-1.1,0.7-1.9c0-0.8-0.2-1.4-0.7-1.9
		C5,7.7,4.4,7.4,3.6,7.4z M3.5,12H2.4V7.9h1.1c1.3,0,2,0.7,2,2C5.5,11.4,4.8,12,3.5,12z"/>
	<polygon class="st1" points="11.8,11.7 10.4,7.4 9.9,7.4 8.4,11.7 7,7.4 6.4,7.4 8.2,12.5 8.7,12.5 10.1,8.4 11.6,12.5 12.1,12.5 
		13.9,7.4 13.3,7.4 	"/>
	<path class="st1" d="M17.7,7.8c-0.3-0.3-0.7-0.4-1.3-0.4h-2v5.1H15v-2.1h1.4c0.5,0,0.9-0.1,1.2-0.4c0.3-0.3,0.4-0.6,0.4-1.1
		S18,8.1,17.7,7.8z M16.4,10H15v-2h1.4c0.8,0,1.2,0.3,1.2,1C17.6,9.6,17.2,10,16.4,10z"/>
</g>
</svg>
