<?xml version="1.0" encoding="utf-8"?>
<!-- Generator: Adobe Illustrator 24.0.0, SVG Export Plug-In . SVG Version: 6.00 Build 0)  -->
<svg version="1.1" id="Layer_1" xmlns="http://www.w3.org/2000/svg" xmlns:xlink="http://www.w3.org/1999/xlink" x="0px" y="0px"
	 viewBox="0 0 19 19" style="enable-background:new 0 0 19 19;" xml:space="preserve">
<style type="text/css">
	.st0{fill:#565657;}
	.st1{fill:#FFFFFF;}
	.st2{fill:#191919;}
	.st3{fill:#347AB7;}
</style>
<g>
	<path class="st0" d="M15.3,8.1c0-0.5-0.1-0.8-0.4-1c-0.3-0.2-0.7-0.3-1.2-0.3h-2v2.7h2c0.5,0,1-0.1,1.2-0.3
		C15.2,8.9,15.3,8.6,15.3,8.1z"/>
	<path class="st0" d="M9.7,0.5c-5,0-9,4-9,9c0,5,4,9,9,9c5,0,9-4,9-9C18.7,4.5,14.7,0.5,9.7,0.5z M9.1,13.1H8.5L4.3,7.5v5.7H3.5v-7
		h0.6l4.3,5.7V6.1h0.8V13.1z M15.5,13.1l-1.2-2.3c-0.1-0.3-0.3-0.5-0.5-0.6c-0.2-0.1-0.5-0.2-0.8-0.2h-1.3v3h-0.8v-7h2.9
		c0.8,0,1.4,0.2,1.8,0.5s0.6,0.8,0.6,1.5c0,0.5-0.2,1-0.5,1.3c-0.3,0.3-0.8,0.5-1.3,0.6c0.2,0.1,0.3,0.1,0.5,0.3s0.3,0.3,0.4,0.5
		l1.2,2.3H15.5z"/>
	<polygon class="st1" points="8.4,11.8 4.1,6.1 3.5,6.1 3.5,13.1 4.3,13.1 4.3,7.5 8.5,13.1 9.1,13.1 9.1,6.1 8.4,6.1 	"/>
	<path class="st1" d="M15.2,10.8c-0.1-0.2-0.2-0.4-0.4-0.5s-0.3-0.2-0.5-0.3c0.6-0.1,1-0.3,1.3-0.6c0.3-0.3,0.5-0.8,0.5-1.3
		c0-0.7-0.2-1.2-0.6-1.5s-1-0.5-1.8-0.5h-2.9v7h0.8v-3H13c0.3,0,0.6,0.1,0.8,0.2c0.2,0.1,0.4,0.3,0.5,0.6l1.2,2.3h0.9L15.2,10.8z
		 M13.7,9.5h-2V6.8h2c0.6,0,1,0.1,1.2,0.3c0.3,0.2,0.4,0.6,0.4,1c0,0.5-0.1,0.8-0.4,1C14.7,9.4,14.3,9.5,13.7,9.5z"/>
</g>
</svg>
