<?xml version="1.0" encoding="utf-8"?>
<!-- Generator: Adobe Illustrator 15.1.0, SVG Export Plug-In . SVG Version: 6.00 Build 0)  -->
<!DOCTYPE svg PUBLIC "-//W3C//DTD SVG 1.1//EN" "http://www.w3.org/Graphics/SVG/1.1/DTD/svg11.dtd">
<svg version="1.1" id="Layer_1" xmlns="http://www.w3.org/2000/svg" xmlns:xlink="http://www.w3.org/1999/xlink" x="0px" y="0px"
	 width="14px" height="14px" viewBox="0 0 14 14" enable-background="new 0 0 14 14" xml:space="preserve">
<image overflow="visible" width="1295" height="158" xlink:href="7048EA6C.jpg"  transform="matrix(0.9999 0 0 0.9999 -7894 -7770.1099)">
</image>
<circle fill="#565657" cx="7" cy="7" r="7"/>
<g>
	<path fill="#FFFFFF" d="M5.441,6.194c0,0.536-0.176,0.947-0.527,1.233c-0.352,0.286-0.852,0.429-1.5,0.429H2.88v1.922H2.041V4.641
		h1.479c0.642,0,1.123,0.131,1.442,0.394C5.281,5.297,5.441,5.683,5.441,6.194z M2.88,7.149h0.446c0.431,0,0.747-0.075,0.948-0.225
		c0.202-0.15,0.302-0.384,0.302-0.703c0-0.295-0.09-0.515-0.271-0.661c-0.18-0.145-0.461-0.218-0.843-0.218H2.88V7.149z"/>
	<path fill="#FFFFFF" d="M11.026,9.777h-0.914L9.241,6.713C9.204,6.58,9.157,6.387,9.101,6.136C9.045,5.884,9.011,5.709,8.999,5.61
		C8.976,5.76,8.938,5.955,8.885,6.194C8.832,6.433,8.788,6.61,8.753,6.728l-0.85,3.05H6.989L6.326,7.206L5.651,4.641h0.857
		l0.734,2.993c0.115,0.48,0.197,0.904,0.246,1.272c0.025-0.199,0.064-0.422,0.116-0.668c0.051-0.246,0.098-0.445,0.141-0.597
		l0.836-3h0.832l0.857,3.014c0.082,0.279,0.169,0.696,0.26,1.251c0.035-0.336,0.12-0.762,0.253-1.279l0.731-2.986h0.85L11.026,9.777
		z"/>
</g>
</svg>
