<svg width="38" height="38" xmlns="http://www.w3.org/2000/svg">
 <!-- Created with Method Draw - http://github.com/duopixel/Method-Draw/ -->
 <g>
  <title>background</title>
  <rect fill="none" id="canvas_background" height="15" width="15" y="-1" x="-1"/>
  <g display="none" overflow="visible" y="0" x="0" height="100%" width="100%" id="canvasGrid">
   <rect fill="url(#gridpattern)" stroke-width="0" y="0" x="0" height="100%" width="100%"/>
  </g>
 </g>
 <g>
  <title>Partially visible</title>
  <ellipse stroke="#000" ry="18.5" rx="18.000001" id="svg_2" cy="19" cx="19" stroke-width="0" fill="#565657"/>
  <text xml:space="preserve" text-anchor="start" font-family="Helvetica, Arial, sans-serif" font-size="24" id="svg_1" y="28.5" x="12" stroke-width="0" stroke="#000" fill="#fffcfc">P</text>
 </g>
</svg>