<?xml version="1.0" encoding="utf-8"?>
<!-- Generator: Adobe Illustrator 15.1.0, SVG Export Plug-In . SVG Version: 6.00 Build 0)  -->
<!DOCTYPE svg PUBLIC "-//W3C//DTD SVG 1.1//EN" "http://www.w3.org/Graphics/SVG/1.1/DTD/svg11.dtd">
<svg version="1.1" id="Layer_1" xmlns="http://www.w3.org/2000/svg" xmlns:xlink="http://www.w3.org/1999/xlink" x="0px" y="0px"
	 width="165.278px" height="193.055px" viewBox="0 0 165.278 193.055" enable-background="new 0 0 165.278 193.055"
	 xml:space="preserve">
<g>
	<path d="M164.227,59.503v121.024c0,5.568-4.518,10.086-10.086,10.086H12.945c-5.568,0-10.085-4.518-10.085-10.086V12.438
		c0-5.568,4.518-10.085,10.085-10.085h94.131c5.567,0,13.342,3.257,17.228,7.144l32.779,32.777
		C160.971,46.161,164.227,53.936,164.227,59.503z M150.779,69.589h-43.703c-5.568,0-10.086-4.518-10.086-10.085V15.8H16.307v161.367
		h134.472V69.589z M110.438,56.142h39.501c-0.631-1.786-1.576-3.572-2.311-4.307l-32.883-32.883
		c-0.735-0.735-2.521-1.681-4.308-2.312V56.142z"/>
</g>
<g>
	<path d="M59.444,147.262V76.95h49.453v13.125H73.507v15h26.109v13.078H73.507v29.109H59.444z"/>
</g>
</svg>
