<?xml version="1.0" encoding="utf-8"?>
<!-- Generator: Adobe Illustrator 15.1.0, SVG Export Plug-In . SVG Version: 6.00 Build 0)  -->
<!DOCTYPE svg PUBLIC "-//W3C//DTD SVG 1.1//EN" "http://www.w3.org/Graphics/SVG/1.1/DTD/svg11.dtd">
<svg version="1.1" id="Layer_1" xmlns="http://www.w3.org/2000/svg" xmlns:xlink="http://www.w3.org/1999/xlink" x="0px" y="0px"
	 width="14px" height="14px" viewBox="0 0 14 14" enable-background="new 0 0 14 14" xml:space="preserve">
<image overflow="visible" width="1295" height="158" xlink:href="7A3C5764.jpg"  transform="matrix(0.9999 0 0 0.9999 -7894 -7770.1099)">
</image>
<circle fill="#565657" cx="7" cy="7" r="7"/>
<g>
	<path fill="#FFFFFF" d="M4.113,5.162c-0.483,0-0.862,0.171-1.138,0.513C2.699,6.017,2.561,6.489,2.561,7.091
		c0,0.63,0.133,1.106,0.398,1.431c0.266,0.322,0.65,0.484,1.154,0.484c0.218,0,0.428-0.021,0.632-0.064
		c0.204-0.045,0.416-0.1,0.636-0.168v0.721c-0.403,0.152-0.859,0.229-1.37,0.229c-0.752,0-1.329-0.229-1.732-0.684
		S1.675,7.932,1.675,7.084c0-0.534,0.098-1.001,0.293-1.402c0.196-0.4,0.479-0.707,0.849-0.92c0.37-0.213,0.804-0.32,1.303-0.32
		c0.524,0,1.009,0.11,1.455,0.331L5.272,5.471C5.099,5.39,4.916,5.317,4.723,5.255S4.326,5.162,4.113,5.162z"/>
	<path fill="#FFFFFF" d="M8.528,9.652l-1.489-4.29H7.011C7.051,6,7.07,6.597,7.07,7.154v2.498H6.309V4.516h1.184l1.427,4.086h0.021
		l1.469-4.086h1.188v5.137h-0.809V7.112c0-0.255,0.007-0.588,0.02-0.998s0.024-0.658,0.033-0.745h-0.027L9.27,9.652H8.528z"/>
</g>
</svg>
