<?xml version="1.0" encoding="utf-8"?>
<!-- Generator: Adobe Illustrator 15.1.0, SVG Export Plug-In . SVG Version: 6.00 Build 0)  -->
<!DOCTYPE svg PUBLIC "-//W3C//DTD SVG 1.1//EN" "http://www.w3.org/Graphics/SVG/1.1/DTD/svg11.dtd">
<svg version="1.1" id="Layer_1" xmlns="http://www.w3.org/2000/svg" xmlns:xlink="http://www.w3.org/1999/xlink" x="0px" y="0px"
	 width="14px" height="14px" viewBox="0 0 14 14" enable-background="new 0 0 14 14" xml:space="preserve">
<circle fill="#565657" cx="7" cy="7" r="7"/>
<g>
	<path fill="#FFFFFF" d="M6.691,5.944c0,0.536-0.176,0.947-0.527,1.233c-0.352,0.286-0.852,0.429-1.5,0.429H4.13v1.922H3.291V4.391
		h1.479c0.642,0,1.123,0.131,1.442,0.394C6.531,5.047,6.691,5.433,6.691,5.944z M4.13,6.899h0.446c0.431,0,0.747-0.075,0.948-0.225
		c0.202-0.15,0.302-0.384,0.302-0.703c0-0.295-0.09-0.515-0.271-0.661c-0.18-0.145-0.461-0.218-0.843-0.218H4.13V6.899z"/>
	<path fill="#FFFFFF" d="M8.377,7.475v2.052h-0.84V4.391h1.45c0.663,0,1.154,0.125,1.473,0.373c0.318,0.249,0.478,0.623,0.478,1.124
		c0,0.64-0.333,1.095-0.998,1.367l1.451,2.273h-0.955l-1.23-2.052H8.377z M8.377,6.78H8.96c0.391,0,0.674-0.073,0.85-0.218
		c0.176-0.146,0.264-0.361,0.264-0.646c0-0.291-0.095-0.499-0.284-0.625c-0.19-0.126-0.476-0.189-0.857-0.189H8.377V6.78z"/>
</g>
</svg>
