<?xml version="1.0" encoding="utf-8"?>
<!-- Generator: Adobe Illustrator 15.1.0, SVG Export Plug-In . SVG Version: 6.00 Build 0)  -->
<!DOCTYPE svg PUBLIC "-//W3C//DTD SVG 1.1//EN" "http://www.w3.org/Graphics/SVG/1.1/DTD/svg11.dtd">
<svg version="1.1" id="Layer_1" xmlns="http://www.w3.org/2000/svg" xmlns:xlink="http://www.w3.org/1999/xlink" x="0px" y="0px"
	 width="503.833px" height="133.334px" viewBox="0 0 503.833 133.334" enable-background="new 0 0 503.833 133.334"
	 xml:space="preserve">
<path fill="#141313" d="M66.129,130C31.116,130,2.63,101.514,2.63,66.5S31.116,3,66.129,3c35.017,0,63.505,28.486,63.505,63.5
	S101.146,130,66.129,130z M66.129,11.956c-30.075,0-54.544,24.469-54.544,54.544c0,30.077,24.469,54.543,54.544,54.543
	c30.079,0,54.55-24.466,54.55-54.543C120.68,36.424,96.208,11.956,66.129,11.956z"/>
<path fill="#141313" d="M101.254,73.449c0,14.43-11.707,26.139-26.14,26.139c-14.434,0-26.141-11.709-26.141-26.139
	c0-14.438,11.707-26.141,26.141-26.141C89.548,47.308,101.254,59.012,101.254,73.449z"/>
<path fill="none" stroke="#141413" stroke-width="4.5695" stroke-miterlimit="10" d="M81.86,59.958
	c0,13.041-10.569,23.607-23.607,23.607c-13.04,0-23.609-10.566-23.609-23.607c0-13.038,10.57-23.608,23.609-23.608
	C71.291,36.35,81.86,46.92,81.86,59.958z"/>
<g>
	<path d="M183.424,61.352h-25.153v-45.12h25.153v4.66h-19.907v14.537h18.703v4.628h-18.703v16.604h19.907V61.352z"/>
	<path d="M205.536,61.969c-4.896,0-8.688-1.508-11.373-4.522c-2.685-3.014-4.027-7.278-4.027-12.792
		c0-5.658,1.363-10.03,4.09-13.116c2.726-3.086,6.609-4.63,11.651-4.63c1.624,0,3.25,0.175,4.875,0.525
		c1.625,0.35,2.902,0.76,3.827,1.234l-1.574,4.352c-1.132-0.453-2.366-0.829-3.704-1.127s-2.52-0.447-3.548-0.447
		c-6.873,0-10.308,4.382-10.308,13.146c0,4.156,0.837,7.346,2.515,9.568c1.676,2.221,4.16,3.333,7.453,3.333
		c2.818,0,5.709-0.606,8.672-1.82v4.537C211.821,61.382,208.973,61.969,205.536,61.969z"/>
	<path d="M226.601,61.352h-5.124V13.33h5.124V61.352z"/>
	<path d="M236.401,18.361c0-1.172,0.286-2.031,0.863-2.577c0.576-0.545,1.296-0.817,2.16-0.817c0.822,0,1.532,0.278,2.13,0.833
		c0.597,0.556,0.895,1.41,0.895,2.562c0,1.153-0.298,2.012-0.895,2.577c-0.598,0.566-1.308,0.849-2.13,0.849
		c-0.864,0-1.584-0.283-2.16-0.849C236.688,20.373,236.401,19.514,236.401,18.361z M241.955,61.352h-5.123V27.527h5.123V61.352z"/>
	<path d="M267.926,61.969c-2.202,0-4.213-0.407-6.033-1.219c-1.821-0.813-3.349-2.063-4.583-3.75h-0.37
		c0.247,1.975,0.37,3.847,0.37,5.617v13.918h-5.124V27.527h4.167l0.709,4.629h0.247c1.316-1.852,2.849-3.189,4.598-4.012
		c1.748-0.823,3.755-1.234,6.019-1.234c4.484,0,7.946,1.533,10.385,4.599s3.657,7.366,3.657,12.9c0,5.556-1.239,9.871-3.719,12.946
		C275.77,60.431,272.327,61.969,267.926,61.969z M267.185,31.262c-3.456,0-5.956,0.957-7.499,2.87
		c-1.544,1.913-2.335,4.959-2.376,9.135v1.142c0,4.753,0.792,8.153,2.376,10.201c1.585,2.047,4.125,3.07,7.622,3.07
		c2.922,0,5.211-1.183,6.868-3.549c1.655-2.365,2.483-5.627,2.483-9.784c0-4.217-0.828-7.453-2.483-9.705
		C272.519,32.388,270.188,31.262,267.185,31.262z"/>
	<path d="M312.105,52.125c0,3.147-1.173,5.576-3.519,7.283c-2.345,1.708-5.637,2.562-9.876,2.562c-4.485,0-7.982-0.71-10.493-2.13
		v-4.753c1.625,0.824,3.369,1.472,5.231,1.945s3.657,0.709,5.386,0.709c2.675,0,4.732-0.426,6.172-1.28
		c1.439-0.853,2.16-2.155,2.16-3.904c0-1.317-0.571-2.443-1.713-3.38c-1.141-0.936-3.37-2.042-6.682-3.316
		c-3.146-1.173-5.385-2.198-6.712-3.071c-1.327-0.875-2.315-1.868-2.963-2.979c-0.648-1.111-0.972-2.438-0.972-3.981
		c0-2.756,1.121-4.932,3.364-6.527c2.242-1.595,5.319-2.392,9.228-2.392c3.641,0,7.201,0.74,10.678,2.223l-1.82,4.166
		c-3.395-1.398-6.472-2.099-9.229-2.099c-2.427,0-4.258,0.381-5.493,1.142c-1.234,0.761-1.852,1.81-1.852,3.148
		c0,0.905,0.231,1.677,0.694,2.315c0.463,0.637,1.208,1.244,2.238,1.82c1.027,0.577,3.003,1.409,5.925,2.5
		c4.012,1.461,6.723,2.933,8.132,4.414C311.4,48.02,312.105,49.882,312.105,52.125z"/>
	<path d="M334.094,61.969c-4.998,0-8.943-1.522-11.834-4.567c-2.891-3.045-4.337-7.273-4.337-12.685
		c0-5.452,1.343-9.783,4.028-12.993c2.685-3.209,6.291-4.814,10.818-4.814c4.238,0,7.591,1.395,10.06,4.182
		c2.469,2.788,3.703,6.466,3.703,11.033v3.241h-23.3c0.102,3.971,1.105,6.985,3.01,9.042c1.901,2.059,4.583,3.086,8.039,3.086
		c3.641,0,7.241-0.76,10.802-2.284v4.567c-1.811,0.783-3.523,1.343-5.14,1.682C338.327,61.799,336.379,61.969,334.094,61.969z
		 M332.707,31.2c-2.717,0-4.881,0.884-6.495,2.653c-1.617,1.771-2.568,4.219-2.855,7.346h17.684c0-3.23-0.721-5.705-2.16-7.423
		C337.439,32.059,335.381,31.2,332.707,31.2z"/>
</g>
<g>
	<path d="M178.4,94.729c0,3.201-1.086,5.652-3.258,7.357c-2.173,1.703-5.251,2.556-9.235,2.556h-5.115v13.671h-2.309V85.225h8.104
		C174.462,85.225,178.4,88.392,178.4,94.729z M160.792,102.652h4.55c3.727,0,6.42-0.616,8.08-1.847
		c1.66-1.229,2.49-3.225,2.49-5.985c0-2.551-0.786-4.44-2.355-5.67c-1.569-1.23-3.998-1.844-7.287-1.844h-5.478V102.652z"/>
	<path d="M186.809,118.313h-2.24V83.096h2.24V118.313z"/>
	<path d="M209.521,118.313l-0.566-3.893h-0.18c-1.238,1.584-2.509,2.705-3.814,3.361c-1.306,0.654-2.848,0.984-4.628,0.984
		c-2.414,0-4.292-0.619-5.636-1.855c-1.342-1.238-2.013-2.95-2.013-5.139c0-2.4,0.999-4.263,2.999-5.59
		c1.999-1.328,4.892-2.028,8.679-2.105l4.685-0.135v-1.631c0-2.338-0.476-4.104-1.425-5.295c-0.951-1.191-2.482-1.789-4.595-1.789
		c-2.278,0-4.64,0.635-7.084,1.902l-0.837-1.945c2.701-1.27,5.371-1.902,8.012-1.902c2.7,0,4.718,0.702,6.053,2.105
		c1.335,1.402,2.004,3.59,2.004,6.563v16.363H209.521z M200.469,116.729c2.624,0,4.695-0.75,6.212-2.252
		c1.516-1.502,2.273-3.588,2.273-6.258v-2.422l-4.299,0.182c-3.456,0.165-5.918,0.705-7.39,1.619
		c-1.471,0.91-2.207,2.334-2.207,4.264c0,1.539,0.471,2.734,1.415,3.589C197.416,116.302,198.748,116.729,200.469,116.729z"/>
	<path d="M225.172,116.773c1.418,0,2.655-0.121,3.712-0.361v1.809c-1.087,0.363-2.339,0.545-3.757,0.545
		c-2.173,0-3.777-0.582-4.809-1.742c-1.034-1.162-1.551-2.988-1.551-5.477V95.658h-3.643v-1.313l3.643-1.019l1.133-5.566h1.153
		v5.953h7.22v1.945h-7.22v15.571c0,1.886,0.332,3.28,0.996,4.187C222.712,116.32,223.753,116.773,225.172,116.773z"/>
	<path d="M242.882,95.658h-5.794v22.654h-2.24V95.658h-4.573v-1.313l4.573-0.837v-1.9c0-3.018,0.554-5.232,1.663-6.643
		c1.109-1.411,2.924-2.117,5.442-2.117c1.357,0,2.716,0.205,4.074,0.611l-0.521,1.947c-1.208-0.377-2.407-0.566-3.598-0.566
		c-1.751,0-2.993,0.516-3.724,1.551c-0.732,1.031-1.098,2.711-1.098,5.035v2.287h5.794V95.658z"/>
	<path d="M267.516,105.979c0,4.013-0.973,7.146-2.919,9.404c-1.946,2.254-4.632,3.383-8.057,3.383c-2.158,0-4.06-0.521-5.703-1.563
		c-1.646-1.041-2.905-2.533-3.78-4.482c-0.875-1.945-1.313-4.193-1.313-6.742c0-4.014,0.974-7.143,2.92-9.383
		c1.946-2.239,4.617-3.36,8.012-3.36c3.379,0,6.031,1.136,7.955,3.407S267.516,102.025,267.516,105.979z M248.098,105.979
		c0,3.378,0.743,6.016,2.229,7.908c1.486,1.895,3.587,2.842,6.303,2.842s4.816-0.947,6.303-2.842
		c1.485-1.893,2.229-4.53,2.229-7.908c0-3.395-0.752-6.029-2.252-7.899c-1.502-1.871-3.61-2.806-6.326-2.806
		s-4.809,0.931-6.28,2.794C248.833,99.933,248.098,102.568,248.098,105.979z"/>
	<path d="M283.552,93.235c1.042,0,2.158,0.106,3.35,0.317l-0.43,2.15c-1.027-0.256-2.09-0.385-3.192-0.385
		c-2.097,0-3.817,0.89-5.16,2.67c-1.343,1.781-2.014,4.029-2.014,6.746v13.578h-2.241v-24.6h1.901l0.226,4.436h0.159
		c1.011-1.812,2.09-3.082,3.236-3.814C280.534,93.603,281.923,93.235,283.552,93.235z"/>
	<path d="M322.174,118.313v-16.139c0-2.396-0.468-4.146-1.403-5.248c-0.936-1.102-2.369-1.652-4.301-1.652
		c-2.52,0-4.382,0.694-5.589,2.08c-1.208,1.391-1.811,3.569-1.811,6.542v14.417h-2.286v-16.814c0-4.15-1.901-6.225-5.703-6.225
		c-2.581,0-4.458,0.75-5.635,2.252c-1.177,1.502-1.766,3.903-1.766,7.209v13.578h-2.24v-24.6h1.856l0.476,3.37h0.135
		c0.679-1.222,1.644-2.169,2.897-2.841c1.251-0.67,2.632-1.007,4.142-1.007c3.877,0,6.368,1.458,7.468,4.368h0.09
		c0.799-1.402,1.875-2.482,3.226-3.236c1.35-0.754,2.885-1.132,4.605-1.132c2.685,0,4.699,0.718,6.043,2.151
		c1.342,1.434,2.014,3.711,2.014,6.834v16.092H322.174z"/>
	<path d="M352.615,95.658h-5.794v22.654h-2.24V95.658h-4.572v-1.313l4.572-0.837v-1.9c0-3.018,0.554-5.232,1.664-6.643
		c1.108-1.411,2.923-2.117,5.441-2.117c1.358,0,2.717,0.205,4.075,0.611l-0.521,1.947c-1.208-0.377-2.407-0.566-3.599-0.566
		c-1.75,0-2.992,0.516-3.723,1.551c-0.732,1.031-1.099,2.711-1.099,5.035v2.287h5.794V95.658z"/>
	<path d="M377.25,105.979c0,4.013-0.973,7.146-2.92,9.404c-1.946,2.254-4.632,3.383-8.056,3.383c-2.159,0-4.061-0.521-5.703-1.563
		c-1.646-1.041-2.905-2.533-3.781-4.482c-0.874-1.945-1.312-4.193-1.312-6.742c0-4.014,0.973-7.143,2.92-9.383
		c1.945-2.239,4.616-3.36,8.012-3.36c3.379,0,6.03,1.136,7.954,3.407C376.288,98.914,377.25,102.025,377.25,105.979z
		 M357.832,105.979c0,3.378,0.744,6.016,2.23,7.908c1.486,1.895,3.587,2.842,6.302,2.842c2.717,0,4.817-0.947,6.304-2.842
		c1.486-1.893,2.23-4.53,2.23-7.908c0-3.395-0.752-6.029-2.254-7.899c-1.5-1.871-3.608-2.806-6.325-2.806
		c-2.715,0-4.808,0.931-6.28,2.794C358.568,99.933,357.832,102.568,357.832,105.979z"/>
	<path d="M393.285,93.235c1.042,0,2.158,0.106,3.351,0.317l-0.431,2.15c-1.026-0.256-2.089-0.385-3.189-0.385
		c-2.099,0-3.819,0.89-5.16,2.67c-1.345,1.781-2.016,4.029-2.016,6.746v13.578h-2.24v-24.6h1.901l0.225,4.436h0.159
		c1.011-1.812,2.091-3.082,3.235-3.814C390.267,93.603,391.657,93.235,393.285,93.235z"/>
	<path d="M427.438,86.83c-4.149,0-7.417,1.328-9.8,3.984c-2.384,2.656-3.576,6.291-3.576,10.908c0,4.723,1.124,8.39,3.372,10.998
		c2.248,2.611,5.463,3.918,9.641,3.918c2.777,0,5.326-0.355,7.651-1.065v2.038c-2.19,0.77-4.919,1.154-8.193,1.154
		c-4.647,0-8.306-1.502-10.977-4.504c-2.67-3.004-4.007-7.197-4.007-12.585c0-3.363,0.637-6.328,1.912-8.894
		c1.277-2.564,3.108-4.545,5.502-5.941c2.39-1.395,5.17-2.092,8.339-2.092c3.229,0,6.117,0.604,8.668,1.809l-0.929,2.083
		C432.627,87.434,430.094,86.83,427.438,86.83z"/>
	<path d="M456.011,118.313l-0.565-3.893h-0.181c-1.238,1.584-2.51,2.705-3.813,3.361c-1.307,0.654-2.849,0.984-4.63,0.984
		c-2.414,0-4.292-0.619-5.635-1.855c-1.344-1.238-2.014-2.95-2.014-5.139c0-2.4,1-4.263,2.998-5.59c2-1.328,4.893-2.028,8.68-2.105
		l4.686-0.135v-1.631c0-2.338-0.475-4.104-1.427-5.295c-0.951-1.191-2.482-1.789-4.594-1.789c-2.277,0-4.64,0.635-7.083,1.902
		l-0.838-1.945c2.7-1.27,5.37-1.902,8.012-1.902c2.701,0,4.719,0.702,6.054,2.105c1.335,1.402,2.004,3.59,2.004,6.563v16.363
		H456.011z M446.959,116.729c2.624,0,4.695-0.75,6.211-2.252c1.518-1.502,2.275-3.588,2.275-6.258v-2.422l-4.301,0.182
		c-3.455,0.165-5.918,0.705-7.389,1.619c-1.471,0.91-2.207,2.334-2.207,4.264c0,1.539,0.473,2.734,1.414,3.589
		C443.908,116.302,445.239,116.729,446.959,116.729z"/>
	<path d="M474.853,93.235c1.041,0,2.157,0.106,3.349,0.317l-0.428,2.15c-1.027-0.256-2.092-0.385-3.192-0.385
		c-2.099,0-3.817,0.89-5.16,2.67c-1.343,1.781-2.014,4.029-2.014,6.746v13.578h-2.242v-24.6h1.903l0.225,4.436h0.159
		c1.012-1.812,2.091-3.082,3.236-3.814C471.836,93.603,473.223,93.235,474.853,93.235z"/>
	<path d="M492.676,118.766c-3.576,0-6.362-1.103-8.362-3.307c-2-2.201-3-5.287-3-9.254c0-3.924,0.965-7.066,2.899-9.428
		c1.93-2.359,4.532-3.542,7.808-3.542c2.895,0,5.182,1.011,6.856,3.034c1.676,2.021,2.511,4.768,2.511,8.238v1.809h-17.72
		c0.031,3.381,0.818,5.961,2.366,7.742c1.547,1.779,3.76,2.67,6.642,2.67c1.402,0,2.637-0.098,3.701-0.296
		c1.063-0.194,2.408-0.617,4.038-1.265v2.035c-1.388,0.604-2.668,1.014-3.847,1.232
		C495.393,118.655,494.094,118.766,492.676,118.766z M492.021,95.227c-2.37,0-4.271,0.781-5.703,2.343
		c-1.435,1.562-2.271,3.815-2.514,6.757h15.208c0-2.854-0.618-5.082-1.854-6.689C495.919,96.031,494.207,95.227,492.021,95.227z"/>
</g>
</svg>
