<?xml version="1.0" encoding="utf-8"?>
<!-- Generator: Adobe Illustrator 15.1.0, SVG Export Plug-In . SVG Version: 6.00 Build 0)  -->
<!DOCTYPE svg PUBLIC "-//W3C//DTD SVG 1.1//EN" "http://www.w3.org/Graphics/SVG/1.1/DTD/svg11.dtd">
<svg version="1.1" id="Layer_1" xmlns="http://www.w3.org/2000/svg" xmlns:xlink="http://www.w3.org/1999/xlink" x="0px" y="0px"
	 width="48px" height="48px" viewBox="0 0 48 48" enable-background="new 0 0 48 48" xml:space="preserve">
<circle fill="#999999" cx="25.492" cy="24" r="21.848"/>
<path fill-rule="evenodd" clip-rule="evenodd" fill="none" stroke="#7891A0" stroke-width="0.2318" stroke-miterlimit="10" d="
	M24.298,9.023"/>
<path fill="#F29D06" d="M18,15.621C18,15.978,17.152,16,16.623,16H2.375C1.847,16,1,15.978,1,15.621V3.985C1,3.627,1.847,3,2.375,3
	h14.248C17.152,3,18,3.627,18,3.985V15.621z"/>
<g>
	<path fill="#FFFFFF" d="M8.603,13.013V6.281h0.783v6.732H8.603z"/>
</g>
<g>
	<g>
		<path fill="#FFFFFF" d="M33.368,35.956h-15.47c-2.815,0-4.727-1.717-4.727-4.584c0-4.001,0.938-10.143,6.125-10.143
			c0.549,0,2.868,2.46,6.337,2.46c3.47,0,5.788-2.46,6.337-2.46c5.187,0,6.125,6.142,6.125,10.143
			C38.095,34.239,36.183,35.956,33.368,35.956z M25.633,22.362c-3.752,0-6.797-3.044-6.797-6.797c0-3.753,3.044-6.797,6.797-6.797
			c3.753,0,6.798,3.044,6.798,6.797C32.431,19.317,29.386,22.362,25.633,22.362z"/>
	</g>
</g>
</svg>
