<?xml version="1.0" encoding="utf-8"?>
<!-- Generator: Adobe Illustrator 15.1.0, SVG Export Plug-In . SVG Version: 6.00 Build 0)  -->
<!DOCTYPE svg PUBLIC "-//W3C//DTD SVG 1.1//EN" "http://www.w3.org/Graphics/SVG/1.1/DTD/svg11.dtd">
<svg version="1.1" id="Layer_1" xmlns="http://www.w3.org/2000/svg" xmlns:xlink="http://www.w3.org/1999/xlink" x="0px" y="0px"
	 width="297.873px" height="282.981px" viewBox="0 0 297.873 282.981" enable-background="new 0 0 297.873 282.981"
	 xml:space="preserve">
<circle fill="#989898" cx="157.544" cy="141.44" r="139.008"/>
<path fill-rule="evenodd" clip-rule="evenodd" fill="none" stroke="#7891A0" stroke-width="1.4749" stroke-miterlimit="10" d="
	M149.949,46.15"/>
<path fill="#676767" d="M106.873,88.128c0,2.271-2.395,4.312-5.758,4.312H10.46c-3.362,0-6.588-2.04-6.588-4.312V14.09
	c0-2.271,3.226-3.65,6.588-3.65h90.654c3.363,0,5.758,1.379,5.758,3.65V88.128z"/>
<g>
	<path fill="#FFFFFF" d="M71.425,28.702v27.715c0,4.883-1.475,8.721-4.424,11.514C64.052,70.724,60,72.12,54.843,72.12
		s-9.146-1.406-11.968-4.219c-2.823-2.813-4.233-6.68-4.233-11.602V28.702h4.98v27.949c0,3.574,0.977,6.318,2.93,8.232
		c1.953,1.915,4.824,2.871,8.613,2.871c3.613,0,6.396-0.961,8.35-2.885s2.93-4.684,2.93-8.277V28.702H71.425z"/>
</g>
<g>
	<path fill-rule="evenodd" clip-rule="evenodd" fill="#FFFFFF" stroke="#66264F" stroke-width="0.3567" stroke-miterlimit="10" d="
		M174.334,55.657c0.594,0,1.188,0,1.783,0c-0.22,0.318-0.431,0.639,0,0.714C175.956,57.072,173.617,57.011,174.334,55.657z"/>
	<path fill-rule="evenodd" clip-rule="evenodd" fill="#FFFFFF" stroke="#66264F" stroke-width="0.3567" stroke-miterlimit="10" d="
		M154.358,68.856c0.218,1.406-1.958,0.419-2.854,0.713C151.287,68.162,153.462,69.149,154.358,68.856z"/>
	<path fill-rule="evenodd" clip-rule="evenodd" fill="#FFFFFF" stroke="#66264F" stroke-width="0.3567" stroke-miterlimit="10" d="
		M164.703,70.639c0.746-0.152,0.944,0.245,1.428,0.356c-0.278,0.317-0.385,0.806-0.356,1.428
		C165.147,72.097,164.534,71.759,164.703,70.639z"/>
	<path fill-rule="evenodd" clip-rule="evenodd" fill="#FFFFFF" stroke="#66264F" stroke-width="0.3567" stroke-miterlimit="10" d="
		M158.639,75.276c0.854-0.141-0.199,1.625,1.069,1.07c-0.086,0.628-0.613,0.813-1.427,0.715
		C158.136,76.2,158.934,76.286,158.639,75.276z"/>
	<path fill-rule="evenodd" clip-rule="evenodd" fill="#FFFFFF" stroke="#66264F" stroke-width="0.3567" stroke-miterlimit="10" d="
		M182.181,92.399c1.24,2.438-0.6,4.863-1.783,6.064c-0.417-1.322,1.123-1.838,0.715-3.925
		C182.35,96.155,181.916,93.217,182.181,92.399z"/>
	<path fill-rule="evenodd" clip-rule="evenodd" fill="#FFFFFF" stroke="#66264F" stroke-width="0.3567" stroke-miterlimit="10" d="
		M136.878,110.235c0.833,0,1.665,0,2.498,0C139.229,111.476,137.084,111.612,136.878,110.235z"/>
	<path fill-rule="evenodd" clip-rule="evenodd" fill="#FFFFFF" stroke="#66264F" stroke-width="0.3567" stroke-miterlimit="10" d="
		M140.803,110.592c0.879-0.048,1.719-0.054,2.14,0.356c0.062,1.013-2.333-0.433-1.783,1.069c-0.879,0.047-1.719,0.054-2.141-0.355
		C139.335,110.819,141.011,112.479,140.803,110.592z"/>
	<path fill-rule="evenodd" clip-rule="evenodd" fill="#FFFFFF" stroke="#66264F" stroke-width="0.3567" stroke-miterlimit="10" d="
		M163.632,119.866c0.794,0.149,0.279,1.895,0,2.142C162.839,121.857,163.353,120.114,163.632,119.866z"/>
	<path fill-rule="evenodd" clip-rule="evenodd" fill="#FFFFFF" stroke="#66264F" stroke-width="0.3567" stroke-miterlimit="10" d="
		M162.562,125.93c0.812,0.379,0.136,2.242,0.357,3.211c1.254-0.41,1.552-1.777,1.783-3.211c0.454,0.736,0.535,1.844,1.071,2.498
		c0.478-0.234,0.663-0.764,0.713-1.428c1.701,0.075,1.582,0.909,3.21,0.357c-1.159,1.318-1.588,4.777-0.713,6.064
		c-1.181-0.721-1.475,0.938-1.07,2.141c-3.004-0.445-4.227-2.672-6.777-3.568C161.611,129.973,161.97,127.836,162.562,125.93z"/>
	<path fill-rule="evenodd" clip-rule="evenodd" fill="#FFFFFF" stroke="#66264F" stroke-width="0.3567" stroke-miterlimit="10" d="
		M140.803,138.416c0.385-0.704,2.959-0.609,2.497,0.714C142.225,140.162,141.823,138.509,140.803,138.416z"/>
	<path fill-rule="evenodd" clip-rule="evenodd" fill="#FFFFFF" stroke="#66264F" stroke-width="0.3567" stroke-miterlimit="10" d="
		M197.878,156.252c0.745-0.151,0.944,0.244,1.427,0.356c-0.189,0.286-0.372,0.579-0.356,1.07c-0.642,0.045-0.753-0.437-1.427-0.357
		C197.709,157.036,197.892,156.743,197.878,156.252z"/>
	<path fill-rule="evenodd" clip-rule="evenodd" fill="#FFFFFF" stroke="#66264F" stroke-width="0.3567" stroke-miterlimit="10" d="
		M185.036,166.954c0.476,0,0.951,0,1.427,0c0.109,0.941-0.744,0.92-1.427,1.069C185.036,167.667,185.036,167.311,185.036,166.954z"
		/>
	<path fill-rule="evenodd" clip-rule="evenodd" fill="#FFFFFF" d="M199.662,141.983 M176.832,192.995 M175.405,192.282
		 M153.882,170.877c-3.091-8.324-3.776-22.632-0.595-29.608c-6.735-2.557-10.29,15.003-18.192,9.275
		c-6.685-4.845-8.127-17.8-11.059-28.181c1.116-6.732,5.79-9.906,11.415-12.129c-0.193-4.115-6.202-7.708-1.783-11.059
		c-0.517-2.84-0.521-4.65-3.21-5.707c-6.094-15.546-0.963-25.664,10.345-34.602c8.177-6.465,14.088-11.248,27.11-9.989
		c13.595,1.316,25.334,10.848,26.754,23.545c0.921,8.234-0.351,16.601-2.14,22.83c-0.819,2.847-3.842,6.126-2.497,9.631
		c1.188,3.102,5.597,4.101,7.135,6.064c3.679,4.692,5.996,12.87,6.42,21.76c0.429,8.996,0.95,19.621,0,28.538
		c-1.066,10.005-4.718,20.762-7.49,30.32c-3.584,12.345-10.246,17.602-22.133,20.17c0.134-0.045-0.252-0.045-0.341-0.193
		c-4.476-2.644-6.854-1.751-10.702-4.993c0.15,0.745-0.245,0.944-0.357,1.426c7.549,4.322-4.474,8.758-2.111,13.014
		c0.023,0,0.023,0.268-0.067,0.401c-3.964,2.803-8.782,0.277-11.376-2c-0.295-1.009,0.288-0.041,0.14-0.898
		c-0.892-0.045,0.491-0.401-1.209-0.527c-0.501-0.127-0.032-0.629,0.356-0.714c-0.476-0.686-1.585,0.409-2.498-0.357
		c1.728,0.941-4.334,1.159-3.924-0.356c-0.413,0.176,1.142,0.564-0.706,0.126c0.417-1.358-1.454,0.202-1.077-1.196
		c-0.287,0.189,0.098,0.053-0.394,0.037c0.066-0.289-0.318-0.036-0.319-0.394c-7.47-5.387-19.85-11.653-14.627-24.257
		c2.479-0.717,3.577-5.453,7.136-2.853c-4.55-5.648-6.188-16.511,1.783-18.55c8.514-2.18,14.612,3.871,22.235,4.605L153.882,170.877
		z M154.358,68.856 M197.522,157.322"/>
</g>
<path fill-rule="evenodd" clip-rule="evenodd" fill="none" stroke="#FFFFFF" stroke-width="3" stroke-miterlimit="10" d="
	M16.873,142.44c13.559-7.14,23.943-13.459,38.039-5.936c10.301,5.497,14.887,25.908,32.064,19.68
	c7.334-2.66,3.762-16.994,15.943-15.837c7.616,0.724,6.213,8.62,11.404,12.093c5.467,3.656,15.501,5.353,20.405,11.849
	c4.644,6.151,10.144-5.349,18.812,0.152"/>
</svg>
